dplyr_TP3_git
…
2020
2020
3

Question 3

# A tibble: 1 × 2
  artist      n
  <chr>   <int>
1 Rihanna    23

Question 4

# A tibble: 59 × 6
   genre           `mean(tempo)` `min(tempo)` `max(tempo)` `median(tempo)` `n()`
   <chr>                   <dbl>        <dbl>        <dbl>           <dbl> <int>
 1 Dance/Electron…         126.          75.3        180.            126.     41
 2 Folk/Acoustic,…         112.          94.9        129.            112.      2
 3 Folk/Acoustic,…          84.2         84.2         84.2            84.2     1
 4 Folk/Acoustic,…         139.         139.         139.            139.      1
 5 R&B                     107.          71.8        171.            100.     13
 6 World/Traditio…          82.8         82.8         82.8            82.8     1
 7 World/Traditio…         100.          98.1        102.            100.      2
 8 World/Traditio…         108.         108.         108.            108.      1
 9 World/Traditio…         103.         100.         105.            103.      2
10 World/Traditio…         118.          96          140.            118.      2
# ℹ 49 more rows

Question 5

# A tibble: 23 × 3
    year  nrgy  dnce
   <int> <dbl> <dbl>
 1  1998 0.445 0.727
 2  1999 0.799 0.686
 3  2000 0.772 0.708
 4  2001 0.739 0.680
 5  2002 0.747 0.694
 6  2003 0.735 0.663
 7  2004 0.746 0.706
 8  2005 0.732 0.678
 9  2006 0.723 0.687
10  2007 0.778 0.639
# ℹ 13 more rows
…
